…
  ),
  user_profiles = tibble(
    time_cycle = c("Workday", "Workday", "Weekend"),
    profile = c("Visit", "Worktime", "Visit"),
    ratio = c(0.5, 0.5, 1),
    power = c(NA, 11, NA)
  ),
  charging_powers = tibble(
    power = c(3.7, 11),
    ratio = c(0.3, 0.7)
  ),
  dates = seq.Date(today(), today()+days(4), length.out = 4),
  resolution = 15
)
#> # A tibble: 55 × 11
#>    Session Timecycle Profile  ConnectionStartDateTime ConnectionEndDateTime
#>    <chr>   <chr>     <chr>    <dttm>                  <dttm>               
#>  1 S1      Workday   Visit    2025-12-19 06:00:00     2025-12-19 10:49:00  
#>  2 S2      Workday   Worktime 2025-12-19 06:15:00     2025-12-19 16:01:00  
#>  3 S3      Workday   Worktime 2025-12-19 06:30:00     2025-12-19 15:56:00  
#>  4 S4      Workday   Worktime 2025-12-19 07:30:00     2025-12-19 18:29:00  
#>  5 S5      Workday   Visit    2025-12-19 07:30:00     2025-12-19 12:46:00  
#>  6 S6      Workday   Worktime 2025-12-19 07:30:00     2025-12-19 18:40:00  
#>  7 S7      Workday   Worktime 2025-12-19 08:00:00     2025-12-19 16:49:00  
#>  8 S8      Workday   Worktime 2025-12-19 08:00:00     2025-12-19 16:08:00  
#>  9 S9      Workday   Visit    2025-12-19 08:45:00     2025-12-19 10:33:00  
#> 10 S10     Workday   Worktime 2025-12-19 09:45:00     2025-12-19 20:03:00  
#> # ℹ 45 more rows
#> # ℹ 6 more variables: ChargingStartDateTime <dttm>, ChargingEndDateTime <dttm>,
#> #   Power <dbl>, Energy <dbl>, ConnectionHours <dbl>, ChargingHours <dbl>
```
